<?xml version="1.0" encoding="utf-8"?>
<!-- Generator: Adobe Illustrator 22.0.1, SVG Export Plug-In . SVG Version: 6.00 Build 0)  -->
<svg version="1.1" id="Слой_1" xmlns="http://www.w3.org/2000/svg" xmlns:xlink="http://www.w3.org/1999/xlink" x="0px" y="0px"
	 viewBox="0 0 6721.7 951.5" style="enable-background:new 0 0 6721.7 951.5;" xml:space="preserve">
<style type="text/css">
	.st0{fill:url(#SVGID_1_);}
	.st1{opacity:0.6;fill:url(#SVGID_2_);enable-background:new    ;}
	.st2{opacity:0.6;fill:url(#SVGID_3_);enable-background:new    ;}
	.st3{opacity:0.6;}
	.st4{opacity:0.6;fill:none;stroke:#93BADD;stroke-width:3;enable-background:new    ;}
	.st5{opacity:0.5;fill:none;stroke:#93BADD;stroke-width:3;enable-background:new    ;}
	.st6{opacity:0.4;fill:none;stroke:#93BADD;stroke-width:3;enable-background:new    ;}
	.st7{opacity:0.2;fill:none;stroke:#93BADD;stroke-width:3;enable-background:new    ;}
	.st8{opacity:0.6;fill:url(#SVGID_4_);enable-background:new    ;}
</style>
<linearGradient id="SVGID_1_" gradientUnits="userSpaceOnUse" x1="3360.283" y1="0.526" x2="3360.283" y2="950.526" gradientTransform="matrix(1 0 0 -1 0 952)">
	<stop  offset="0.242" style="stop-color:#FFFBD4"/>
	<stop  offset="0.552" style="stop-color:#E7E3D0"/>
	<stop  offset="0.693" style="stop-color:#D3DDD9"/>
	<stop  offset="0.878" style="stop-color:#BED7E2"/>
	<stop  offset="1" style="stop-color:#B6D5E5"/>
</linearGradient>
<path class="st0" d="M0.3,1.5h6720v950H0.3L0.3,1.5z"/>
<linearGradient id="SVGID_2_" gradientUnits="userSpaceOnUse" x1="3349.9993" y1="459.088" x2="3349.9993" y2="162.251" gradientTransform="matrix(1 0 0 -1 0 954.052)">
	<stop  offset="0" style="stop-color:#5498D5"/>
	<stop  offset="1" style="stop-color:#B2DCF8"/>
</linearGradient>
<path class="st1" d="M3369,0.3l-0.4,1.2c-8.7,25.9-18,52.7-27.6,79.7c-21.7,60.7-42.4,113.9-62.1,159.8h-0.1v0.2
	c-37.5,87.4-70.9,146.9-99,176.3c-30.7-35.6-51.1-105-63.1-159V258h-0.1c-1.3-5.9-2.5-11.7-3.7-17.2v-101l-87.9-4l-10.9,4.4v190.6
	c-2.3,62.2-5.2,105.1-8.5,138.5h0v0.4c-3.9,39.6-8.5,65.9-13.7,95.4c-2.9,16.3-5.8,33.2-8.9,53.8h-0.3l0,0.3v-50.1h-16.8v-51.6h-4.6
	v51.6h-16.8v58.6h-8.8v-35.8h-4.4v-42.7h-4.1v42.7h-16.6v35.8H2893V555h-44.6v72.7h-12.6v4.1h-9.6v-17.3h-4.6v-23.8h-15v23.8h-11.1
	v-23.8h-8.3v23.8h-12.7v17.3h-11.7v111.8h-35.3V647h-32.1v81.6h-11.2V584.9h-9.4v-26.6h-26.4v26.6h-7.5v-12.2h-11.8V530h-8.2v42.7
	h-3.6v12.2h-4.7v41.1h-3.3v-41.1h-3.3v143.7h-15.7v-76.7h-42.9v-64.1h-3.6V530h-29.7v57.8h-11.6v64.1h-13.3V626h-75.3v18.3h-47.2
	v-66.3h-24.1V476h-75.1v-39.8h-24.1v-13.9h-16.6v13.9h-25.1V476h-22.5v-62.5h-70.5v165.4h-63.9v-88.7h-6.9V345.3h-41.2v75.4h-34.4
	v-66.5h-78v-71.1h-35.1v-18.3h-58.1v18.3H1705v497.6h52.2v72.8H2024v12.9h84.6v2.9h70.5v-15.9h76.2l437.3,6.9h285.9l4.1-14.3v-36.4
	l168.3,0.2h203.4l311.1-4.9l-7.6-14.2h508.7V572.4h-25.2v-14.2h-70.3v14.2h-25.2v71h-11.4v-40.4h-4.4v40.4h-4.4v-23.1h-4v23.1h-23
	v-23.1h-16V617h-20.1v-16.6h-1.5V617h-3.6v3.4h-14.2v34.8h-19.1v-19.8h-17.6v19.8h-23.7v50.3h-5.6v-86.7h-9v-27.5h-2.5v27.5h-9v86.7
	h-4.7v-74.6h-2.4v-22.8h-2.2v22.8h-8.9v74.6h-8.7v-35.6h-16.7v-84.9l-26.7-26.7l-26.7,26.7v126.9h-11.4v-51.5H3724v43.5h-6v-76.7h-5
	V613h-14.1v14.2h-4v-6.5h-6.3v-22.8h-4.4v22.8h-1.9v6.5h-2.5v21.9h-1.8v-21.9h-1.8v76.7h-8.4v-40.9h-22.9v-34.2h-1.9v-30.8h-15.8
	v30.9h-6.2v34.2h-7.1v-13.8h-40.2v7h-21v-13h-53.6v18.5h-9.5V616h-8.3v-41.1h-21.1V616h-2.6v45.6h-30.5v54.6h-11.1V613.9h-2.4v29.2
	h-2.4v-29.2h-3.4v-98.7h-2.6v-20.4h-5.8v30.4h-8.4v8.7h-5.3v-18.9h-18.8v18.9h-6.7v182.2h-7.9v-58h-22.8v68.7h-25.1V557.5L3269,522
	l-35.6,35.6v169.2h-22.2v-8.4h-11.6v-99.5h-11.8v-30.4h-2.9v30.4h-3.2v99.5h-6.3V602.7h-12V566h-3.3v36.7h-12v133.7l-20.4,0.3V675
	H3113v-72.1c11.1-14.2,23.4-27.3,36.9-39.3c30.1-26.3,90.3-68.9,191.3-102.2c111.4-34.1,229.2-44.6,229.2-44.6
	c333.2-28,1412,234.6,1412,234.6l12.6-239.6c0,0-943.2-221.4-1443.2-110.3V0.1 M3475.7,0.3l-0.4,1.2c-9.1,24.7-18.8,50.2-28.9,75.8
	c-5.2,13.3-10.4,26.2-15.5,38.8V1.5 M3483.9,0l-0.6,1.5c-9.5,24.9-19.5,50.7-29.9,76.5c-7.6,19-15.2,37.2-22.6,54.8v-11.1
	c5.6-13.8,11.3-28,17.1-42.6c10.3-26.3,20.2-52.4,29.5-77.6l0.5-1.4 M3549.6,1.5V302c-17,3.8-34,7.8-51.2,12.1
	c-11.9,3-23.5,6.1-34.8,9.3V58.5h-0.1c7.6-19.3,15-38.4,22.1-57l0.5-1.3 M3430.9,138.3c7.9-18.7,16-38.2,24.1-58.4
	c2.2-5.4,4.3-10.8,6.5-16.2V324c-10.4,3-20.6,6-30.6,9.1L3430.9,138.3L3430.9,138.3z M3343.8,364c-13.1,5.3-25.8,10.6-38,16.1
	c13.7-19.4,26.4-39.5,38-60.3V364z M3343.8,315.2c-14.9,26.4-29,48.7-42.4,66.9l-1.7,0.8l-0.7,0.3c14.1-19.6,29-43.8,44.7-72.7
	L3343.8,315.2L3343.8,315.2z M3363.9,356.1c-6.1,2.3-12.1,4.6-18,7v-47.2c1.9-3.3,3.7-6.7,5.6-10.1c4.1-7.5,8.2-15.2,12.4-23.3
	L3363.9,356.1L3363.9,356.1z M3428.7,333.8c-21.9,6.9-42.8,14.1-62.6,21.6v-77c19.8-38.6,40.8-83.7,62.6-135L3428.7,333.8
	L3428.7,333.8z M3428.7,137.9c-22.6,53.1-44.1,99.7-64.5,139.3h-0.3v0.5c-4.6,9-9.2,17.6-13.7,25.9c-1.4,2.6-2.8,5.2-4.3,7.7v-4.9
	c0.3-0.5,0.5-1,0.8-1.5c25.5-47.6,53-107.4,82-178L3428.7,137.9L3428.7,137.9z M3428.7,1.5v119.9c-29.3,71.6-57,132.1-82.8,180.3
	V95.2c1.5-4.1,3.1-8.2,4.6-12.4c10.1-27.5,19.9-54.9,29-81.3c0.1-0.4,0.3-0.9,0.5-1.3 M3377.4,1.5c-9,25.9-18.5,52.7-28.4,79.6
	c-1,2.7-2,5.5-3,8.2V73.6h0c8.7-24.4,17-48.6,24.9-72.1 M3281,241.6c19.5-45.6,40.1-98.8,61.6-158.8c0.4-1.1,0.8-2.2,1.2-3.3v15.5
	c-22,59.1-42.9,111-62.8,155.4L3281,241.6L3281,241.6z M3281,255.9c19.8-44.2,40.8-96.1,62.8-154.9v204.7
	c-17.3,32-33.6,58.4-49,79.2c-4.6,1.9-9.2,3.9-13.8,5.8L3281,255.9L3281,255.9z M3142.9,469c-2.5,1.9-5,3.7-7.4,5.5v-33.4
	c2.3,0.5,4.6,0.8,6.9,0.8c0.2,0,0.4,0,0.6,0L3142.9,469L3142.9,469z M3166.7,452.4c-7.7,5.2-14.9,10.2-21.6,15v-25.6
	c0.6,0,1.3,0.1,1.9,0.1c5.8-0.1,11.4-1.5,16.5-4.3c1.1-0.5,2.1-1.2,3.2-1.8L3166.7,452.4L3166.7,452.4z M3171,449.6
	c-0.7,0.5-1.4,1-2.1,1.4v-16.5c0.7-0.5,1.4-1,2.1-1.5V449.6L3171,449.6z M3171,429.5c-0.3,0.3-0.7,0.5-1,0.7
	C3170.3,430,3170.6,429.7,3171,429.5L3171,429.5L3171,429.5z M3171,425.8c-3.9,3.4-8.2,6.3-12.7,8.7c-4.1,2.2-8.6,3.5-13.2,4v-69.1
	c7.6,17.3,16.2,33.3,25.9,46L3171,425.8L3171,425.8z M3173.1,448.1v-16.7c2.2-1.7,4.4-3.6,6.7-5.7c0.1,0.1,0.1,0.2,0.2,0.2
	c3.7,3.7,7.7,7.1,12.1,10C3185.5,440.1,3179.2,444.2,3173.1,448.1L3173.1,448.1z M3177.6,423.4c0.1,0.1,0.2,0.3,0.4,0.4
	c-1.6,1.5-3.3,2.8-4.9,4.1v-0.3C3174.6,426.3,3176.1,424.9,3177.6,423.4L3177.6,423.4z M3173.1,423.9v-5.7c0.9,1.1,1.8,2.2,2.7,3.2
	C3174.9,422.3,3174,423.1,3173.1,423.9L3173.1,423.9z M3181.8,424c0.1-0.1,0.2-0.2,0.3-0.3c0.4,0.5,0.9,1,1.3,1.4
	c1.8,1.9,3.7,3.6,5.5,5.1C3186.4,428.3,3184,426.2,3181.8,424L3181.8,424z M3229.2,415c-11,5.7-21.5,11.5-31.1,17.4l-0.9,0.5
	c-4.6-3-8.9-6.6-12.8-10.6c-0.1-0.1-0.3-0.3-0.4-0.5c13.8-13.8,28.9-34.7,45.2-62.7L3229.2,415L3229.2,415z M3278.8,391.6
	c-16.5,7.1-32.6,14.6-47.5,22.3v-58.4c7.9-13.8,16.2-29.2,24.6-46.3c7.4-14.9,15.1-31.1,22.9-48.5L3278.8,391.6L3278.8,391.6z
	 M3250.3,309.2c9.2-18.9,18.7-39.7,28.6-62.5v8.7c-16.8,37.3-32.6,69.1-47.5,95.3v-4.4h-0.1C3237.4,334.9,3243.8,322.5,3250.3,309.2
	L3250.3,309.2z M3229.1,349.9v4.5c-17.1,29.5-32.8,51.4-47.1,65.5c-0.2-0.2-0.3-0.3-0.5-0.5C3196.2,404,3212,380.8,3229.1,349.9
	L3229.1,349.9z M3179.8,421.2c0.1,0.2,0.3,0.3,0.4,0.5l-0.4,0.4l-0.4-0.4C3179.6,421.5,3179.7,421.4,3179.8,421.2L3179.8,421.2z
	 M3116.7,267.6c1.1,4.7,2.2,9.5,3.4,14.4c11.3,45.3,30.3,104.5,57.9,137.3c-0.1,0.1-0.3,0.3-0.4,0.4
	c-28.5-31.7-48.3-92.9-60.9-145.1L3116.7,267.6L3116.7,267.6z M3116.7,283.2c6.3,25.3,15,54.8,26.2,81.5h-0.1v73.7
	c-8.1-1.1-16-5.5-23.7-13.3c-0.8-0.8-1.6-1.7-2.4-2.6V283.2L3116.7,283.2z M3116.7,426.3c0.5,0.5,1,1.1,1.5,1.6
	c1.6,1.6,3.2,3.1,4.8,4.4c-2.2-1.5-4.3-3.2-6.3-5L3116.7,426.3L3116.7,426.3z M3113,250.7c0.5,2.4,1,4.9,1.6,7.3h0v7.3
	c-0.5-2.3-1.1-4.7-1.6-7L3113,250.7L3113,250.7z M3113,267.6c0.5,2.2,1,4.5,1.6,6.7V420c-0.5-0.6-1.1-1.3-1.6-2L3113,267.6
	L3113,267.6z M3113,422c0.5,0.6,1.1,1.3,1.6,1.9v1.3l-0.1,0c-0.5-0.5-1-1.1-1.5-1.6L3113,422L3113,422z M3113,427.2
	c0.2,0.2,0.4,0.4,0.6,0.6c0.3,0.3,0.7,0.7,1,1v57.5h2.2v-55.5c4.7,4.4,10.4,7.7,16.5,9.7v35.6c-7.3,5.5-14,10.9-20.2,16.1
	L3113,427.2L3113,427.2z M1998.5,489.2h-26.7v23.7h-7.6v-58.1h34.4L1998.5,489.2L1998.5,489.2z M1998.5,445.8h-34.4v-17.3h34.4
	L1998.5,445.8L1998.5,445.8z M2292,577.9h-9.1v-83.7h9.2L2292,577.9L2292,577.9z M2311.8,577.9h-9.1v-83.7h9.2L2311.8,577.9
	L2311.8,577.9z M2331.5,577.9h-9.1v-83.7h9.1V577.9z M2612.7,728.6h-3.3v-27.2h3.3V728.6z M2612.7,699.2h-3.3v-34.4h3.3V699.2
	L2612.7,699.2z M2612.7,662.6h-3.3v-34.4h3.3V662.6L2612.7,662.6z M2994.5,618.7l-4,5.6V619h-0.9c1.7-8.2,3.4-16.2,4.9-24.1
	L2994.5,618.7L2994.5,618.7z M2994.5,584.1c-2.1,11.3-4.4,23-7,34.9h-2.4c3-20.2,5.9-36.8,8.8-52.9l0.6-3.4L2994.5,584.1
	L2994.5,584.1z M3005.7,603l-9.1,12.7v-32.2c3.6-19.6,6.6-38.3,9.1-55.8L3005.7,603L3005.7,603z M3005.7,512.8
	c-2.4,18.5-5.4,38.3-9.1,59.4v-21.1h-0.1c3.3-19.5,6.4-38.8,9.2-63L3005.7,512.8L3005.7,512.8z M3014.2,591.1l-6.4,8.9v-88.5
	c3-23.2,5-44.1,6.4-62.3V591.1L3014.2,591.1z M3014.2,417.9c-0.9,20.1-2.8,46.3-6.4,77.3v-25.8h-0.1c2.4-24.6,4.6-54.4,6.5-93.1
	L3014.2,417.9L3014.2,417.9z M3678.1,650.3h1.8v18.3h-1.8L3678.1,650.3L3678.1,650.3z M3678.1,669.8h1.8v18.3h-1.8L3678.1,669.8
	L3678.1,669.8z M3678.1,689.4h1.8v14.5h-1.8L3678.1,689.4L3678.1,689.4z M3411.4,644.7h2.4v24.5h-2.4V644.7z M3411.4,670.7h2.4v24.5
	h-2.4V670.7z M3411.4,696.8h2.4v19.3h-2.4V696.8L3411.4,696.8z M3051.4,552.2l-0.9,3.6c-2.4,2.9-4.8,5.8-7.1,8.7V293
	c0,0-1.8-20.4,5.7-33.8c0.7,3.6,1.5,7.3,2.3,11h-0.4v282L3051.4,552.2L3051.4,552.2z M3056.8,548.3c-0.6,0.8-1.3,1.5-1.9,2.3
	c-0.9,1.1-1.4,1.7-1.4,1.7c1-3.9,2.1-7.8,3.1-11.6l0.3-1L3056.8,548.3L3056.8,548.3z M3073.8,529c-3.6,3.8-7,7.6-10.2,11.2
	c3.9-12.9,7.3-27.1,10.2-41.7V529L3073.8,529z M3073.8,488.4c-3.6,19.6-8.1,39-13.5,55.7c-0.5,0.5-0.9,1.1-1.4,1.6v-13.1h-0.3
	c5.2-19.7,10.4-40.4,15.2-67.6L3073.8,488.4L3073.8,488.4z M3073.8,453v0.5c-5.9,36.4-12.5,61.4-19,85.8l-1.6,5.9V278.3
	c0.6,2.4,1.1,4.9,1.7,7.3c5.3,22.7,12.4,48.7,21.1,72.9v80.6C3075.3,443.9,3074.6,448.5,3073.8,453L3073.8,453L3073.8,453z
	 M3076,451.8V476l0,0.3V453h-0.1L3076,451.8z M3076,526.8v-39.5c0-0.1,0-0.2,0-0.2v39.1h0.6L3076,526.8L3076,526.8z M3050.7,256.7
	c0.6-0.9,1.3-1.8,2.1-2.6c2,10,4.3,20.6,6.9,31.5c6,25.6,14.1,55.2,24.4,81.7c-0.1,1.7-0.3,3.3-0.4,5c-1.9-4.5-3.6-9.2-5.4-14v-0.1
	h0C3066.4,325.7,3057.2,288.5,3050.7,256.7L3050.7,256.7z M3087.2,386.2c-1.4,15.9-4.2,45-9.1,76.4v-25.2
	c2.3-16.5,4.5-35.2,6.5-56.9C3085.5,382.5,3086.4,384.3,3087.2,386.2L3087.2,386.2z M3085.1,376.1c0.1-1.6,0.3-3.2,0.4-4.8
	c0.8,2,1.6,4,2.4,5.9l-0.4,4.6C3086.7,379.9,3085.9,378,3085.1,376.1L3085.1,376.1z M3078.2,423.2v-58.8c1.6,4.3,3.3,8.4,5,12.5
	C3081.6,394,3079.9,409.3,3078.2,423.2L3078.2,423.2z M3078.2,524.5v-49.8c4.9-29.5,8.1-58.1,9.9-77.2c0,33.8,0,74.6,0,117.1
	C3084.6,517.9,3081.3,521.2,3078.2,524.5L3078.2,524.5z M3088.1,372.1c-0.7-1.8-1.5-3.6-2.2-5.5c0.8-9.4,1.5-19.4,2.2-29.9
	C3088.1,346.3,3088.1,358.3,3088.1,372.1L3088.1,372.1z M3088.2,305.1c-1.1,21.1-2.4,40.1-3.8,57.4c-13.1-34.8-23-75.8-29.9-109.8
	c3.2-0.9,19.1-4.9,25.6,6c6.1,10.2,8.3,32,8.4,45.5C3088.3,304.5,3088.2,304.8,3088.2,305.1L3088.2,305.1z"/>
<linearGradient id="SVGID_3_" gradientUnits="userSpaceOnUse" x1="5859.8833" y1="474.91" x2="5859.8833" y2="248.14" gradientTransform="matrix(1 0 0 -1 0 954.052)">
	<stop  offset="0" style="stop-color:#5498D5"/>
	<stop  offset="1" style="stop-color:#B2DCF8"/>
</linearGradient>
<path class="st2" d="M6720.3,101h-46.2v71H6639v71.1h-78v66.5h-34.4v-75.4h-41.2v144.9h-6.9v88.7h-63.9V252.5h-70.5v32.5h-22.5
	v-39.8h-25.1v-13.9H6280v13.9h-24.1v39.8h-75.1v182h-24.1v66.3h-47.2v-18.3h-75.3v25.9h-13.3v-64.1h-11.6v-57.8h-29.7v57.8h-3.6
	v64.1H5933v76.7h-15.7V473.8h-3.3v41.1h-3.3v-41.1h-4.7v-12.2h-3.6v-42.7h-8.2v42.7h-11.8v12.2h-7.5v-26.6h-26.4v26.6h-9.4v143.7
	h-11.2V536h-46.1v96.5h-21.3V394.6l-50-50l-50,50v159.2h-31.2v66.8h-16.3V480.8h-16.6v-42.7h-4.1v42.7h-4.4v139.8h-8.8V458.1H5562
	v-51.6h-4.6v51.6h-16.8v162.5H5530v-94.3h-44.4v-37.2h-33v37.2h-35.7v-65.2h-26.6v-6.4h-6.7v-31.1h-2.8v31.1H5343v6.4h-30.1v43.3
	h-43.2v-43.3h-7.5v43.3h-8.3v-75.7h-8.3v75.7h-21.5V371.3H5177v-26.6h-131.7v26.6h-47.2v393.9l832.6-15.8l513.5-6.9h377.5
	L6720.3,101z M5914,617.5h-3.3v-27.2h3.3V617.5z M5914,588.1h-3.3v-34.4h3.3V588.1z M5914,551.5h-3.3v-34.4h3.3V551.5z
	 M6211.6,303.1h9.2v163.7h-9.2V303.1z M6191.9,303.1h9.2v163.7h-9.2L6191.9,303.1L6191.9,303.1z M6240.5,466.8h-9.2V303.1h9.2V466.8
	z M6559.2,317.5v17.2h-34.4v-17.2L6559.2,317.5L6559.2,317.5z M6524.9,343.6h34.4v58.1h-7.6v-23.7h-26.7L6524.9,343.6L6524.9,343.6z
	"/>
<g class="st3">
	<path class="st4" d="M3615,288.5V0.5 M3738.3,269.2V0.5"/>
	<path class="st5" d="M3965.9,253.6V1.4"/>
	<path class="st6" d="M4045.5,257.6V0.5"/>
	<path class="st7" d="M4267.2,271.6V1.4 M4346.8,284.2V0.5 M4307,277.5V2.3"/>
	<path class="st6" d="M4109,257.6V2.3"/>
	<path class="st5" d="M3863,257.6V1.4"/>
</g>
<linearGradient id="SVGID_4_" gradientUnits="userSpaceOnUse" x1="852.5085" y1="427.629" x2="852.5085" y2="200.858" gradientTransform="matrix(1 0 0 -1 0 954.052)">
	<stop  offset="0" style="stop-color:#5498D5"/>
	<stop  offset="1" style="stop-color:#B2DCF8"/>
</linearGradient>
<path class="st8" d="M1705,219.3h-41.9v-71h-58.1v71H1570v71.1h-78v66.5h-34.4v-75.4h-41.2v144.9h-6.9v88.7h-63.9V299.7h-70.5v32.5
	h-22.5v-39.8h-25.1v24.5h-16.6v-24.5h-24.1v39.8h-75.1v182h-24.1v66.3h-47.2v-18.3h-75.3v25.9h-13.3V524h-11.7v-57.8h-29.7V524h-3.6
	v64.1H864v76.7h-15.7V521.1H845v41.1h-3.3v-41.1h-4.7v-12.2h-3.6v-42.7h-8.2v42.7h-11.8v12.2h-7.5v-26.6h-26.3v26.6h-9.4v143.7
	h-11.2v-81.5h-32.1v96.5h-35.3V441.9l-50-50l-50,50v237.9h-31.2v-11.9h-16.3V528.1h-16.7v-42.7h-4.2v42.7h-4.4v139.8h-8.8V505.4H493
	v-51.6h-4.6v51.6h-16.8v162.5h-10.6v-94.3h-44.4v-37.2h-33.1v37.2h-35.7v-65.2h-26.6V502h-6.7V471h-2.8V502H274v6.4h-30.1v43.3
	h-43.2v-43.3h-7.5v43.3h-8.3V476h-8.3v75.7h-21.5V418.5H108v-26.6H0l2,420.6h127.5l1069.4-22.7l146.7,15.9v-2.9h84.6l266.8-13
	l7.9-72.9L1705,219.3L1705,219.3z M845,664.8h-3.3v-27.2h3.3V664.8L845,664.8z M845,635.4h-3.3V601h3.3V635.4z M845,598.8h-3.3
	v-34.4h3.3V598.8L845,598.8z M1142.6,350.4h9.2v163.7h-9.2V350.4L1142.6,350.4z M1122.8,350.4h9.2v163.7h-9.2L1122.8,350.4
	L1122.8,350.4z M1171.4,514.1h-9.2V350.4h9.2L1171.4,514.1L1171.4,514.1z M1490.2,364.8V382h-34.3v-17.2H1490.2L1490.2,364.8z
	 M1455.8,390.9h34.4v58.2h-7.6v-23.7h-26.7L1455.8,390.9L1455.8,390.9z"/>
</svg>
